{
        "type": "FeatureCollection",
        "features": [
        {
            "type": "Feature",
            "geometry": {
                "type": "Point",
                "coordinates":
                [7.659938,45.063258]
            },
         "properties": {
           "timestamp":1528374839950,
           "cost":0.5
         }
        },
       {
         "type": "Feature",
         "geometry": {
            "type": "Point",
            "coordinates":  [ 45.063425,7.659402 ]
         },
         "properties": {
           "timestamp":1528374839950,
           "cost":0.5
         }
       },
       {
         "type": "Feature",
         "geometry": {
            "type": "Point",
            "coordinates":  [ 45.063001,7.658801 ]
         },
         "properties": {
           "timestamp":1528374839950,
           "cost":0.5
         }
       },
       {
         "type": "Feature",
         "geometry": {
            "type": "Point",
            "coordinates":  [ 45.062849,7.659359 ]
         },
         "properties": {
           "timestamp":1528374839950,
           "cost":0.5
         }
       },
       {
         "type": "Feature",
         "geometry": {
            "type": "Point",
            "coordinates":  [ 45.062213,7.658908 ]
         },
         "properties": {
           "timestamp":1528374839950,
           "cost":0.5
         }
       },
       {
         "type": "Feature",
         "geometry": {
            "type": "Point",
            "coordinates":  [ 45.062425,7.657235 ]
         },
         "properties": {
           "timestamp":1528374839950,
           "cost":0.5
         }
       },
       {
         "type": "Feature",
         "geometry": {
            "type": "Point",
            "coordinates":  [ 45.064895,7.658093 ]
         },
         "properties": {
           "timestamp":1528374839950,
           "cost":0.5
         }
       },
       {
         "type": "Feature",
         "geometry": {
            "type": "Point",
            "coordinates":  [ 45.063561,7.659552 ]
         },
         "properties": {
           "timestamp":1528374839950,
           "cost":0.5
         }
       },
       {
         "type": "Feature",
         "geometry": {
            "type": "Point",
            "coordinates":  [ 45.064107,7.660861 ]
         },
         "properties": {
           "timestamp":1528374839950,
           "cost":0.5
         }
       },
       {
         "type": "Feature",
         "geometry": {
            "type": "Point",
            "coordinates":  [ 45.064516,7.659616 ]
         },
         "properties": {
           "timestamp":1528374839950,
           "cost":0.5
         }
       },
       {
         "type": "Feature",
         "geometry": {
            "type": "Point",
            "coordinates":  [ 45.063637,7.656355 ]
         },
         "properties": {
           "timestamp":1528374839950,
           "cost":0.5
         }
       },
       {
         "type": "Feature",
         "geometry": {
            "type": "Point",
            "coordinates":  [ 45.06291,7.656956 ]
         },
         "properties": {
           "timestamp":1528374839950,
           "cost":0.5
         }
       },
       {
         "type": "Feature",
         "geometry": {
            "type": "Point",
            "coordinates":  [ 45.062107,7.655861 ]
         },
         "properties": {
           "timestamp":1528374839950,
           "cost":0.5
         }
       },
       {
         "type": "Feature",
         "geometry": {
            "type": "Point",
            "coordinates":  [ 45.061653,7.65702 ]
         },
         "properties": {
           "timestamp":1528374839950,
           "cost":0.5
         }
       },
       {
         "type": "Feature",
         "geometry": {
            "type": "Point",
            "coordinates":  [ 45.061562,7.658393 ]
         },
         "properties": {
           "timestamp":1528374839950,
           "cost":0.5
         }
       },
       {
         "type": "Feature",
         "geometry": {
            "type": "Point",
            "coordinates":  [ 45.06238,7.660432 ]
         },
         "properties": {
           "timestamp":1528374839950,
           "cost":0.5
         }
       },
       {
         "type": "Feature",
         "geometry": {
            "type": "Point",
            "coordinates":  [ 45.061441,7.660732 ]
         },
         "properties": {
           "timestamp":1528374839950,
           "cost":0.5
         }
       },
       {
         "type": "Feature",
         "geometry": {
            "type": "Point",
            "coordinates":  [ 45.06135,7.659767 ]
         },
         "properties": {
           "timestamp":1528374839950,
           "cost":0.5
         }
       },
       {
         "type": "Feature",
         "geometry": {
            "type": "Point",
            "coordinates":  [ 45.060607,7.659423 ]
         },
         "properties": {
           "timestamp":1528374839950,
           "cost":0.5
         }
       },
       {
         "type": "Feature",
         "geometry": {
            "type": "Point",
            "coordinates":  [ 45.060926,7.661505 ]
         },
         "properties": {
           "timestamp":1528374839950,
           "cost":0.5
         }
       },
       {
         "type": "Feature",
         "geometry": {
            "type": "Point",
            "coordinates":  [ 45.061592,7.662084 ]
         },
         "properties": {
           "timestamp":1528374839950,
           "cost":0.5
         }
       },
       {
         "type": "Feature",
         "geometry": {
            "type": "Point",
            "coordinates":  [ 45.061168,7.663243 ]
         },
         "properties": {
           "timestamp":1528374839950,
           "cost":0.5
         }
       },
       {
         "type": "Feature",
         "geometry": {
            "type": "Point",
            "coordinates":  [ 45.061865,7.663608 ]
         },
         "properties": {
           "timestamp":1528374839950,
           "cost":0.5
         }
       },
       {
         "type": "Feature",
         "geometry": {
            "type": "Point",
            "coordinates":  [ 45.062986,7.662964 ]
         },
         "properties": {
           "timestamp":1528374839950,
           "cost":0.5
         }
       },
       {
         "type": "Feature",
         "geometry": {
            "type": "Point",
            "coordinates":  [ 45.063743,7.662127 ]
         },
         "properties": {
           "timestamp":1528374839950,
           "cost":0.5
         }
       },
       {
         "type": "Feature",
         "geometry": {
            "type": "Point",
            "coordinates":  [ 45.064486,7.665153 ]
         },
         "properties": {
           "timestamp":1528374839950,
           "cost":0.5
         }
       },
       {
         "type": "Feature",
         "geometry": {
            "type": "Point",
            "coordinates":  [ 45.06341,7.664831 ]
         },
         "properties": {
           "timestamp":1528374839950,
           "cost":0.5
         }
       },
       {
         "type": "Feature",
         "geometry": {
            "type": "Point",
            "coordinates":  [ 45.062213,7.664487 ]
         },
         "properties": {
           "timestamp":1528374839950,
           "cost":0.5
         }
       },
       {
         "type": "Feature",
         "geometry": {
            "type": "Point",
            "coordinates":  [ 45.064667,7.663264 ]
         },
         "properties": {
           "timestamp":1528374839950,
           "cost":0.5
         }
       },
       {
         "type": "Feature",
         "geometry": {
            "type": "Point",
            "coordinates":  [ 45.065531,7.660882 ]
         },
         "properties": {
           "timestamp":1528374839950,
           "cost":0.5
         }
       },
       {
         "type": "Feature",
         "geometry": {
            "type": "Point",
            "coordinates":  [ 45.065909,7.656569 ]
         },
         "properties": {
           "timestamp":1528374839950,
           "cost":0.5
         }
       },
       {
         "type": "Feature",
         "geometry": {
            "type": "Point",
            "coordinates":  [ 45.063743,7.655175 ]
         },
         "properties": {
           "timestamp":1528374839950,
           "cost":0.5
         }
       },
       {
         "type": "Feature",
         "geometry": {
            "type": "Point",
            "coordinates":  [ 45.062698,7.654424 ]
         },
         "properties": {
           "timestamp":1528374839950,
           "cost":0.5
         }
       },
       {
         "type": "Feature",
         "geometry": {
            "type": "Point",
            "coordinates":  [ 45.062638,7.655368 ]
         },
         "properties": {
           "timestamp":1528374839950,
           "cost":0.5
         }
       },
       {
         "type": "Feature",
         "geometry": {
            "type": "Point",
            "coordinates":  [ 45.061244,7.653201 ]
         },
         "properties": {
           "timestamp":1528374839950,
           "cost":0.5
         }
       },
       {
         "type": "Feature",
         "geometry": {
            "type": "Point",
            "coordinates":  [ 45.063925,7.653544 ]
         },
         "properties": {
           "timestamp":1528374839950,
           "cost":0.5
         }
       },
       {
         "type": "Feature",
         "geometry": {
            "type": "Point",
            "coordinates":  [ 45.064077,7.656655 ]
         },
         "properties": {
           "timestamp":1528374839950,
           "cost":0.5
         }
       },
       {
         "type": "Feature",
         "geometry": {
            "type": "Point",
            "coordinates":  [ 45.065485,7.654831 ]
         },
         "properties": {
           "timestamp":1528374839950,
           "cost":0.5
         }
       },
       {
         "type": "Feature",
         "geometry": {
            "type": "Point",
            "coordinates":  [ 45.065152,7.657535 ]
         },
         "properties": {
           "timestamp":1528374839950,
           "cost":0.5
         }
       },
       {
         "type": "Feature",
         "geometry": {
            "type": "Point",
            "coordinates":  [ 45.066273,7.658865 ]
         },
         "properties": {
           "timestamp":1528374839950,
           "cost":0.5
         }
       },
       {
         "type": "Feature",
         "geometry": {
            "type": "Point",
            "coordinates":  [ 45.064925,7.659338 ]
         },
         "properties": {
           "timestamp":1528374839950,
           "cost":0.5
         }
       },
       {
         "type": "Feature",
         "geometry": {
            "type": "Point",
            "coordinates":  [ 45.064728,7.656913 ]
         },
         "properties": {
           "timestamp":1528374839950,
           "cost":0.5
         }
       },
       {
         "type": "Feature",
         "geometry": {
            "type": "Point",
            "coordinates":  [ 45.06032,7.654788 ]
         },
         "properties": {
           "timestamp":1528374839950,
           "cost":0.5
         }
       },
       {
         "type": "Feature",
         "geometry": {
            "type": "Point",
            "coordinates":  [ 45.060623,7.656162 ]
         },
         "properties": {
           "timestamp":1528374839950,
           "cost":0.5
         }
       },
       {
         "type": "Feature",
         "geometry": {
            "type": "Point",
            "coordinates":  [ 45.061213,7.654917 ]
         },
         "properties": {
           "timestamp":1528374839950,
           "cost":0.5
         }
       },
       {
         "type": "Feature",
         "geometry": {
            "type": "Point",
            "coordinates":  [ 45.060865,7.657535 ]
         },
         "properties": {
           "timestamp":1528374839950,
           "cost":0.5
         }
       },
       {
         "type": "Feature",
         "geometry": {
            "type": "Point",
            "coordinates":  [ 45.05982,7.657857 ]
         },
         "properties": {
           "timestamp":1528374839950,
           "cost":0.5
         }
       },
       {
         "type": "Feature",
         "geometry": {
            "type": "Point",
            "coordinates":  [ 45.060638,7.658415 ]
         },
         "properties": {
           "timestamp":1528374839950,
           "cost":0.5
         }
       },
       {
         "type": "Feature",
         "geometry": {
            "type": "Point",
            "coordinates":  [ 45.059729,7.659016 ]
         },
         "properties": {
           "timestamp":1528374839950,
           "cost":0.5
         }
       },
       {
         "type": "Feature",
         "geometry": {
            "type": "Point",
            "coordinates":  [ 45.05982,7.660174 ]
         },
         "properties": {
           "timestamp":1528374839950,
           "cost":0.5
         }
       },
       {
         "type": "Feature",
         "geometry": {
            "type": "Point",
            "coordinates":  [ 45.060305,7.66026 ]
         },
         "properties": {
           "timestamp":1528374839950,
           "cost":0.5
         }
       },
       {
         "type": "Feature",
         "geometry": {
            "type": "Point",
            "coordinates":  [ 45.059789,7.662342 ]
         },
         "properties": {
           "timestamp":1528374839950,
           "cost":0.5
         }
       },
       {
         "type": "Feature",
         "geometry": {
            "type": "Point",
            "coordinates":  [ 45.060607,7.662814 ]
         },
         "properties": {
           "timestamp":1528374839950
           ,
           "cost":0.5}
       },
       {
         "type": "Feature",
         "geometry": {
            "type": "Point",
            "coordinates":  [ 45.061077,7.662599 ]
         },
         "properties": {
           "timestamp":1528374839950,
           "cost":0.5
         }
       },
       {
         "type": "Feature",
         "geometry": {
            "type": "Point",
            "coordinates":  [ 45.060198,7.665088 ]
         },
         "properties": {
           "timestamp":1528374839950,
           "cost":0.5
         }
       },
       {
         "type": "Feature",
         "geometry": {
            "type": "Point",
            "coordinates":  [ 45.06091,7.665474 ]
         },
         "properties": {
           "timestamp":1528374839950,
           "cost":0.5
         }
       },
       {
         "type": "Feature",
         "geometry": {
            "type": "Point",
            "coordinates":  [ 45.061638,7.664165 ]
         },
         "properties": {
           "timestamp":1528374839950,
           "cost":0.5
         }
       },
       {
         "type": "Feature",
         "geometry": {
            "type": "Point",
            "coordinates":  [ 45.062289,7.665646 ]
         },
         "properties": {
           "timestamp":1528374839950,
           "cost":0.5
         }
       },
       {
         "type": "Feature",
         "geometry": {
            "type": "Point",
            "coordinates":  [ 45.062244,7.662213 ]
         },
         "properties": {
           "timestamp":1528374839950,
           "cost":0.5
         }
       },
       {
         "type": "Feature",
         "geometry": {
            "type": "Point",
            "coordinates":  [ 45.063531,7.661569 ]
         },
         "properties": {
           "timestamp":1528374839950,
           "cost":0.5
         }
       },
       {
         "type": "Feature",
         "geometry": {
            "type": "Point",
            "coordinates":  [ 45.062486,7.660904 ]
         },
         "properties": {
           "timestamp":1528374839950,
           "cost":0.5
         }
       },
       {
         "type": "Feature",
         "geometry": {
            "type": "Point",
            "coordinates":  [ 45.061819,7.661312 ]
         },
         "properties": {
           "timestamp":1528374839950,
           "cost":0.5
         }
       },
       {
         "type": "Feature",
         "geometry": {
            "type": "Point",
            "coordinates":  [ 45.063137,7.660668 ]
         },
         "properties": {
           "timestamp":1528374839950,
           "cost":0.5
         }
       },
       {
         "type": "Feature",
         "geometry": {
            "type": "Point",
            "coordinates":  [ 45.064319,7.66217 ]
         },
         "properties": {
           "timestamp":1528374839950,
           "cost":0.5
         }
       },
       {
         "type": "Feature",
         "geometry": {
            "type": "Point",
            "coordinates":  [ 45.063258,7.659938 ]
         },
         "properties": {
           "timestamp":1528374839950,
           "cost":0.5
         }
       }
     ]
     }
